Introduction
…
principal_components_results
Provides easy access to principal component analysis results.

get_all_factors
finds all factor pairs for a given integer.

anomalyDetection also incorporates the pipe operator (%>%) from the magrittr package for streamlining function composition. To illustrate the functionality of anomalyDetection we will use the security_logs data that mimics common information that appears in security logs and comes with anomalyDetection.

# we'll use tidyverse for some common manipulations
library(tidyverse)
library(anomalyDetection)

security_logs
## # A tibble: 300 × 10
##    Device_Vendor Device_Product Device_Action          Src_IP
##            <chr>          <chr>         <chr>           <chr>
## 1         McAfee            NSP       Attempt   223.70.128.61
## 2          CISCO            ASA       Failure 174.110.206.174
## 3            IBM          SNIPS       Success 174.110.206.174
## 4         McAfee            NSP       Success   227.12.127.87
## 5        Juniper            SRX       Success     28.9.24.154
## 6         McAfee            NSP       Success     28.9.24.154
## 7         McAfee            NSP       Attempt     28.9.24.154
## 8         McAfee            ePO       Attempt   223.70.128.61
## 9         McAfee            ePO       Attempt 174.110.206.174
## 10         CISCO            ASA       Attempt   227.12.127.87
## # ... with 290 more rows, and 6 more variables: Dst_IP <chr>,
## #   Src_Port <int>, Dst_Port <int>, Protocol <chr>, Country_Src <chr>,
## #   Bytes_TRF <int>

State Vector Creation

To apply the statistical methods that we’ll see in the sections that follow, we employ the tabulated vector approach. This approach transforms the security log data into unique counts of data attributes based on pre-defined time blocks. Therefore, as each time block is generated, the categorical fields are separated by their levels and a count of occurrences for each level are recorded into a vector. All numerical fields, such as bytes in and bytes out, are recorded as a summation within the time block. The result is what we call a “state vector matrix”.

Thus, for our security_logs data we can create our state vector matrix based on our data being divided into 10 time blocks. What results is the summary of instances for each categorical level in our data for each time block. Consequently, row one represents the first time block and there were 2 instances of CISCO as the device vendor, 1 instances of IBM, etc.

tabulate_state_vector(security_logs, 10)
## # A tibble: 30 × 43
##    CISCO   IBM Juniper McAfee `Palo Alto Networks`   NA1   ASA Firewall
##    <dbl> <dbl>   <dbl>  <dbl>                <dbl> <dbl> <dbl>    <dbl>
## 1      2     1       1      6                    0     0     2        0
## 2      0     2       4      2                    2     0     0        2
## 3      2     4       2      2                    0     0     2        0
## 4      5     1       2      1                    1     0     5        1
## 5      3     1       1      3                    2     0     3        2
## 6      2     1       2      4                    1     0     2        1
## 7      2     2       1      3                    2     0     2        2
## 8      3     3       1      3                    0     0     3        0
## 9      0     1       4      3                    2     0     0        2
## 10     2     2       2      4                    0     0     2        0
## # ... with 20 more rows, and 35 more variables: NSP <dbl>, SNIPS <dbl>,
## #   SRX <dbl>, ePO <dbl>, NA2 <dbl>, Attempt <dbl>, Failure <dbl>,
## #   Success <dbl>, NA3 <dbl>, `174.110.206.174` <dbl>,
## #   `223.70.128.61` <dbl>, `227.12.127.87` <dbl>, `28.9.24.154` <dbl>,
## #   `89.130.69.91` <dbl>, NA4 <dbl>, `145.114.4.203` <dbl>,
## #   `151.194.233.198` <dbl>, `219.142.109.8` <dbl>, `32.73.26.223` <dbl>,
## #   `56.137.121.203` <dbl>, NA5 <dbl>, TCP <dbl>, UDP <dbl>, NA6 <dbl>,
## #   China <dbl>, India <dbl>, Korea <dbl>, Netherlands <dbl>,
## #   Russia <dbl>, US <dbl>, `United Kingdom` <dbl>, NA7 <dbl>,
## #   Src_Port <dbl>, Dst_Port <dbl>, Bytes_TRF <dbl>

Multicollinearity Adjustment

Prior to proceeding with any multivariate statistical analyses we should inspect the state vector for multicollinearity, to avoid issues such as matrix singularity, rank deficiency, and strong correlation values, and remove any columns that pose an issue. We can use mc_adjust to handle issues with multi-collinearity by first removing any columns whose variance is close to or less than a minimum level of variance (min_var). Then, it removes linearly dependent columns. Finally, it removes any columns that have a high absolute correlation value equal to or greater than max_cor.

(state_vec <- security_logs %>%
  tabulate_state_vector(10) %>%
  mc_adjust())
## # A tibble: 30 × 26
##    CISCO   IBM Juniper McAfee `Palo Alto Networks`   NSP Attempt Failure
##    <dbl> <dbl>   <dbl>  <dbl>                <dbl> <dbl>   <dbl>   <dbl>
## 1      2     1       1      6                    0     4       5       1
## 2      0     2       4      2                    2     0       4       2
## 3      2     4       2      2                    0     0       3       3
## 4      5     1       2      1                    1     0       0       5
## 5      3     1       1      3                    2     2       3       3
## 6      2     1       2      4                    1     3       4       1
## 7      2     2       1      3                    2     3       3       3
## 8      3     3       1      3                    0     1       6       2
## 9      0     1       4      3                    2     2       4       4
## 10     2     2       2      4                    0     1       3       0
## # ... with 20 more rows, and 18 more variables: `174.110.206.174` <dbl>,
## #   `223.70.128.61` <dbl>, `227.12.127.87` <dbl>, `28.9.24.154` <dbl>,
## #   `145.114.4.203` <dbl>, `151.194.233.198` <dbl>, `219.142.109.8` <dbl>,
## #   `32.73.26.223` <dbl>, TCP <dbl>, China <dbl>, India <dbl>,
## #   Korea <dbl>, Netherlands <dbl>, Russia <dbl>, US <dbl>,
## #   Src_Port <dbl>, Dst_Port <dbl>, Bytes_TRF <dbl>
…
Multivariate Statistical Analyses

With our data adjusted for multicollinearity we can now proceed with multivariate analyses to identify anomalies. First we’ll use the mahalanobis_distance function to compare the distance between each observation by its distance from the data mean, independent of scale. This is computed as

\[MD = \sqrt{(x - \bar{x})C^{-1}(x-\bar{x})} \tag{1}\]

where \(x\) is a vector of \(p\) observations, \(x=(x_1, \dots, x_p)\), \(\bar{x}\) is the mean vector of the data, \(\bar{x}=(\bar{x}_1, \dots, \bar{x}_p)\), and \(C^{-1}\) is the inverse data covariance matrix.

Here, we include output = "both" to return both the Mahalanobis distance and the absolute breakdown distances and normalize = TRUE so that we can compare relative magnitudes across our data.

state_vec %>%
  mahalanobis_distance("both", normalize = TRUE) %>%
  as_tibble
## # A tibble: 30 × 27
##           MD    CISCO_BD      IBM_BD  Juniper_BD   McAfee_BD
##        <dbl>       <dbl>       <dbl>       <dbl>       <dbl>
## 1  0.4548549 0.005536981 0.013005457 0.016020254 0.021822626
## 2  4.3843800 0.024664733 0.005573767 0.044055697 0.008985787
## 3  0.3604990 0.005536981 0.042732214 0.004005063 0.008985787
## 4  0.8456773 0.050839552 0.013005457 0.004005063 0.016687890
## 5  3.3541552 0.020637838 0.013005457 0.016020254 0.001283684
## 6  1.0900685 0.005536981 0.013005457 0.004005063 0.006418419
## 7  0.6769589 0.005536981 0.005573767 0.016020254 0.001283684
## 8  0.6968981 0.020637838 0.024152991 0.016020254 0.001283684
## 9  0.9910764 0.024664733 0.013005457 0.044055697 0.001283684
## 10 5.7822485 0.005536981 0.005573767 0.004005063 0.006418419
## # ... with 20 more rows, and 22 more variables: `Palo Alto
## #   Networks_BD` <dbl>, NSP_BD <dbl>, Attempt_BD <dbl>, Failure_BD <dbl>,
## #   `174.110.206.174_BD` <dbl>, `223.70.128.61_BD` <dbl>,
## #   `227.12.127.87_BD` <dbl>, `28.9.24.154_BD` <dbl>,
## #   `145.114.4.203_BD` <dbl>, `151.194.233.198_BD` <dbl>,
## #   `219.142.109.8_BD` <dbl>, `32.73.26.223_BD` <dbl>, TCP_BD <dbl>,
## #   China_BD <dbl>, India_BD <dbl>, Korea_BD <dbl>, Netherlands_BD <dbl>,
## #   Russia_BD <dbl>, US_BD <dbl>, Src_Port_BD <dbl>, Dst_Port_BD <dbl>,
## #   Bytes_TRF_BD <dbl>
…
For easy access to these results we can use the factor_analysis_results parsing function. The factor_analysis_results will parse the results either by their list name or by location. For instance to extract the rotated factor scores you can use factor_analysis_results(data, results = fa_scores_rotated) or factor_analysis_results(data, results = 4) as demonstrated below.

state_vec %>%
  horns_curve() %>%
  factor_analysis(state_vec, hc_points = .) %>%
  factor_analysis_results(4) %>%
  as_tibble
## # A tibble: 30 × 12
##             V1         V2           V3          V4          V5         V6
##          <dbl>      <dbl>        <dbl>       <dbl>       <dbl>      <dbl>
## 1   1.87213106  0.1160018 -0.932756096 -0.49761881 -0.05951385 -0.1378172
## 2  -0.91353766 -0.5845927  2.293779441  0.23861431 -0.65706417 -0.2195791
## 3  -1.09637501 -1.5142712  0.318868180  0.51558583  0.50214841 -0.8778730
## 4  -1.48063194  2.5561361 -1.105201880  0.06094348 -0.60779252  0.2881919
## 5  -0.20122344 -0.3763629 -0.913310110  1.81546753 -0.98002131  0.9012263
## 6   0.75745062  0.3144349 -0.302600591  0.66702799  1.19720196  1.8496055
## 7   0.59008899  0.9130094  0.552940355 -0.09866971  1.71017031 -1.0044785
## 8  -0.71107596 -1.4453147 -2.113142341 -1.42822734 -0.96160484 -0.6119127
## 9  -0.08578748  0.6386426  2.123170502  0.49493775 -0.68690707 -0.4812421
## 10  0.14955216  0.4253572  0.008289596  1.63929012 -0.37477679 -2.1123358
## # ... with 20 more rows, and 6 more variables: V7 <dbl>, V8 <dbl>,
## #   V9 <dbl>, V10 <dbl>, V11 <dbl>, V12 <dbl>
…
For easy access to these results we can use the principal_components_result parsing function. The principal_components_result will parse the results either by their list name or by location. For instance to extract the computed component scores as outlined in Eq. 8 you can use principal_components_result(data, results = pca_rotated) or principal_components_result(data, results = 3) as demonstrated below.

state_vec %>%
  principal_components() %>%
  principal_components_result(pca_rotated) %>%
  as_tibble
## # A tibble: 30 × 26
##           PC1        PC2       PC3         PC4        PC5        PC6
##         <dbl>      <dbl>     <dbl>       <dbl>      <dbl>      <dbl>
## 1    1326.436 -285.25432  36.72409 -3.44733723  1.9672714  2.6338413
## 2   20404.603  420.02368 236.95090 -3.59001238 -2.4572121 -2.4592367
## 3    1884.370 -229.68494  45.39949 -1.26497496 -2.5971138 -1.1600819
## 4    1555.892  171.11409 116.14891  6.06862021 -0.5868180 -1.5274882
## 5  -37890.373 -470.91899  55.73816  0.74851917  0.4237737  0.4669886
## 6  -19041.547 -307.40732 -44.48368 -0.65318192  1.9272812  3.0072747
## 7  -19117.070  130.64748  30.69727  1.85623776 -2.0745001  0.9738108
## 8   21346.072   35.75863  12.44457 -1.66565937 -2.7994737  2.5073397
## 9  -18901.619 -251.40990  55.19690  0.01965195  0.4856842 -2.9931123
## 10 -37321.917 -848.69719 -77.71486 -2.29953719 -2.9065252 -1.3523165
## # ... with 20 more rows, and 20 more variables: PC7 <dbl>, PC8 <dbl>,
## #   PC9 <dbl>, PC10 <dbl>, PC11 <dbl>, PC12 <dbl>, PC13 <dbl>, PC14 <dbl>,
## #   PC15 <dbl>, PC16 <dbl>, PC17 <dbl>, PC18 <dbl>, PC19 <dbl>,
## #   PC20 <dbl>, PC21 <dbl>, PC22 <dbl>, PC23 <dbl>, PC24 <dbl>,
## #   PC25 <dbl>, PC26 <dbl>
…
