broom and dplyr
…
regressions %>% augment(fit)

## # A tibble: 32 x 12
## # Groups:   cyl [3]
##      cyl    wt   mpg  qsec  gear .fitted .se.fit    .resid  .hat .sigma
##    <dbl> <dbl> <dbl> <dbl> <dbl>   <dbl>   <dbl>     <dbl> <dbl>  <dbl>
##  1     4  2.32  22.8  18.6     4    2.46   0.142 -0.143    0.197  0.339
##  2     4  3.19  24.4  20       4    2.63   0.120  0.556    0.141  0.243
##  3     4  3.15  22.8  22.9     4    3.39   0.299 -0.243    0.876  0.199
##  4     4  2.2   32.4  19.5     4    1.86   0.174  0.336    0.296  0.304
##  5     4  1.62  30.4  18.5     4    1.82   0.148 -0.207    0.213  0.332
##  6     4  1.84  33.9  19.9     4    1.83   0.210  0.000505 0.432  0.345
##  7     4  2.46  21.5  20.0     3    2.61   0.249 -0.141    0.610  0.332
##  8     4  1.94  27.3  18.9     4    2.16   0.105 -0.223    0.107  0.331
##  9     4  2.14  26    16.7     5    2.06   0.218  0.0849   0.464  0.342
## 10     4  1.51  30.4  16.9     5    1.74   0.201 -0.225    0.396  0.324
## # ... with 22 more rows, and 2 more variables: .cooksd <dbl>,
## #   .std.resid <dbl>
…
