Selecting Variables
…
dummied <- rec %>% step_dummy(all_nominal())

This will capture any variables that are either character strings or factors: Status and Records. However, since Status is our outcome, we might want to keep it as a factor so we can subtract that variable out either by name or by role:

dummied <- rec %>% step_dummy(Records) # or
dummied <- rec %>% step_dummy(all_nominal(), - Status) # or
dummied <- rec %>% step_dummy(all_nominal(), - all_outcomes()) 

Using the last definition:

dummied <- prep(dummied, training = credit_data)
with_dummy <- bake(dummied, new_data = credit_data)
with_dummy
#> # A tibble: 4,454 x 5
#>    Seniority  Time   Age Status Records_X1
#>        <int> <int> <int> <fct>       <dbl>
#>  1         9    60    30 good           -1
#>  2        17    60    58 good           -1
#>  3        10    36    46 bad             1
#>  4         0    60    24 good           -1
#>  5         0    36    26 good           -1
#>  6         1    60    36 good           -1
#>  7        29    60    44 good           -1
#>  8         9    12    27 good           -1
#>  9         0    60    32 good           -1
#> 10         0    48    41 bad            -1
#> # … with 4,444 more rows
…
