Basic Recipes
…
Note that the real variables are listed (e.g. Home etc.) instead of the selectors (all_numeric_predictors()).

Now that the statistics have been estimated, the preprocessing can be applied to the training and test set:

train_data <- bake(trained_rec, new_data = credit_train)
test_data  <- bake(trained_rec, new_data = credit_test)

bake returns a tibble that, by default, includes all of the variables:

class(test_data)
#> [1] "tbl_df"     "tbl"        "data.frame"
test_data
#> # A tibble: 1,113 x 23
#>    Seniority   Time      Age Expenses   Income  Assets   Debt Amount  Price
#>        <dbl>  <dbl>    <dbl>    <dbl>    <dbl>   <dbl>  <dbl>  <dbl>  <dbl>
#>  1   0.257   -0.706  0.826      1.75   0.718   -0.199  -0.273  2.05   2.53 
#>  2   2.61     0.921  0.643      0.987 -0.221    0.386  -0.273  1.21   0.577
#>  3   0.133   -2.33  -0.909     -1.05  -0.784   -0.449  -0.273 -1.76  -0.589
#>  4   0.00966  0.921 -0.635      0.987  0.705   -0.0316  1.86   0.995  0.330
#>  5   0.875   -1.52   1.37      -1.05   2.34     0.929  -0.273  0.995  1.24 
#>  6   3.10    -1.52   2.84       0.479  0.718   -0.0316  1.43  -0.912 -0.165
#>  7   2.24     0.921  1.28      -0.539  0.00434 -0.157  -0.273  0.677 -0.153
#>  8  -0.979    0.108  0.00402   -1.05  -0.371   -0.265  -0.273  0.995  0.660
#>  9   1.99     0.921  0.461      0.987 -0.0707  -0.115  -0.273 -0.276 -0.467
#> 10  -0.979    0.921 -0.453     -0.539 -0.00817  0.136   2.28   0.465  0.192
#> # … with 1,103 more rows, and 14 more variables: Status <fct>, Home_X1 <dbl>,
#> #   Home_X2 <dbl>, Home_X3 <dbl>, Home_X4 <dbl>, Home_X5 <dbl>,
#> #   Marital_X1 <dbl>, Marital_X2 <dbl>, Marital_X3 <dbl>, Marital_X4 <dbl>,
#> #   Records_X1 <dbl>, Job_X1 <dbl>, Job_X2 <dbl>, Job_X3 <dbl>
…
